Covid-19 in Finland - Case Study
…
Introduction

In this notebook, we visualize the coronavirus situation in Finland. We use a dataset acquired from the Finnish Institute for Health and Welfare and use the tidyverse and ggmap packages to manipulate and visualize the data. The ggmap package uses the Google Maps API, so it is necessary to sign up to the Google Cloud Platform to be able to access the API. The full source code is available at the projects GitHub repository.

Data Preparation

Lets get started by importing our data. The Google Cloud Platform API key is stored in our home directory in a “.Renviron” file, so you need to create that file as well, or directly copy and paste the API key as a string to the api_key variable in R.

api_key <- Sys.getenv("GOOGLE_MAPS")
covid1 <- read_csv2("./data/covid19case.csv")

Lets take a look at our data.

## # A tibble: 2,332 x 3
##    Aika                 Alue         val
##    <chr>                <chr>      <dbl>
##  1 Vuosi 2020 Viikko 01 Ahvenanmaa     0
##  2 Vuosi 2020 Viikko 02 Ahvenanmaa     0
##  3 Vuosi 2020 Viikko 03 Ahvenanmaa     0
##  4 Vuosi 2020 Viikko 04 Ahvenanmaa     0
##  5 Vuosi 2020 Viikko 05 Ahvenanmaa     0
##  6 Vuosi 2020 Viikko 06 Ahvenanmaa     0
##  7 Vuosi 2020 Viikko 07 Ahvenanmaa     0
##  8 Vuosi 2020 Viikko 08 Ahvenanmaa     0
##  9 Vuosi 2020 Viikko 09 Ahvenanmaa     0
## 10 Vuosi 2020 Viikko 10 Ahvenanmaa     0
## # … with 2,322 more rows
…
covid2 <- covid1 %>%
  separate(Aika, c("y", "year", "w", "week"), sep =" ") %>%
  select(-y, -w) %>%
  unite(date, c(year, week), sep = "") %>%
  mutate(date = paste(date, "04", sep = "")) %>%
  transmute(date = as.Date(date, "%Y%U%w"), area = Alue, cases = val) %>%
  filter(!is.na(cases), !is.na(date))

Exploratory Analysis

Now that we have our data cleaned, we start to examine our data more in depth. Lets start by summarising the data. The below output summarises the total covid-19 cases by different areas.

## `summarise()` ungrouping output (override with `.groups` argument)

## # A tibble: 22 x 2
##    area                       total_cases
##    <chr>                            <dbl>
##  1 Kaikki Alueet                    37584
##  2 Helsingin ja Uudenmaan SHP       22034
##  3 Varsinais-Suomen SHP              3371
##  4 Pirkanmaan SHP                    2001
##  5 Pohjois-Pohjanmaan SHP            1658
##  6 Vaasan SHP                        1343
##  7 Keski-Suomen SHP                  1230
##  8 Päijät-Hämeen SHP                  993
##  9 Kanta-Hämeen SHP                   656
## 10 Kymenlaakson SHP                   592
## # … with 12 more rows
…
