WHO Tuberculosis Data - Case Study
…
WHO Tuberculosis Data - Case Study

Emil Sievänen

1/14/2021

Introduction

This notebook showcases basic data analysis process from data cleansing to data visualization and modelling. We will be using tuberculosis data acquired from the World Health Organization, which is included in the tidyr package. The data cleansing process will follow the methodology introduced in the book R for Data Science. This case study utilizes the tidyverse collection of r packages to manipulate and visualize data. The full source code will be available at the projects GitHub repository

Data Cleansing

As a first step, lets take a quick peek at the data.

## # A tibble: 7,240 x 60
##    country iso2  iso3   year new_sp_m014 new_sp_m1524 new_sp_m2534 new_sp_m3544
##    <chr>   <chr> <chr> <int>       <int>        <int>        <int>        <int>
##  1 Afghan… AF    AFG    1980          NA           NA           NA           NA
##  2 Afghan… AF    AFG    1981          NA           NA           NA           NA
##  3 Afghan… AF    AFG    1982          NA           NA           NA           NA
##  4 Afghan… AF    AFG    1983          NA           NA           NA           NA
##  5 Afghan… AF    AFG    1984          NA           NA           NA           NA
##  6 Afghan… AF    AFG    1985          NA           NA           NA           NA
##  7 Afghan… AF    AFG    1986          NA           NA           NA           NA
##  8 Afghan… AF    AFG    1987          NA           NA           NA           NA
##  9 Afghan… AF    AFG    1988          NA           NA           NA           NA
## 10 Afghan… AF    AFG    1989          NA           NA           NA           NA
## # … with 7,230 more rows, and 52 more variables: new_sp_m4554 <int>,
## #   new_sp_m5564 <int>, new_sp_m65 <int>, new_sp_f014 <int>,
## #   new_sp_f1524 <int>, new_sp_f2534 <int>, new_sp_f3544 <int>,
## #   new_sp_f4554 <int>, new_sp_f5564 <int>, new_sp_f65 <int>,
## #   new_sn_m014 <int>, new_sn_m1524 <int>, new_sn_m2534 <int>,
## #   new_sn_m3544 <int>, new_sn_m4554 <int>, new_sn_m5564 <int>,
## #   new_sn_m65 <int>, new_sn_f014 <int>, new_sn_f1524 <int>,
## #   new_sn_f2534 <int>, new_sn_f3544 <int>, new_sn_f4554 <int>,
## #   new_sn_f5564 <int>, new_sn_f65 <int>, new_ep_m014 <int>,
…
who <- who %>% 
  select(-iso2, -iso3, -new)

Summarising Data

Next, we will summarise the data with the summarise function. The below code chunk will create a new tibble with a new column representing the average number of tuberculosis by countries in descending order. As we can see, the top 3 countries are: India, China and South Africa.

who %>% group_by(country) %>%
  summarise(average_cases = round(mean(cases), 0)) %>%
  arrange(desc(average_cases))

## `summarise()` ungrouping output (override with `.groups` argument)

## # A tibble: 219 x 2
##    country                          average_cases
##    <chr>                                    <dbl>
##  1 India                                    27729
##  2 China                                    23049
##  3 South Africa                              7414
##  4 Indonesia                                 6928
##  5 Philippines                               4537
##  6 Bangladesh                                4011
##  7 Viet Nam                                  3832
##  8 Democratic Republic of the Congo          3612
##  9 Pakistan                                  3457
## 10 Nigeria                                   2471
## # … with 209 more rows
…
